{
    "name": "App\\User",
    "line": 9,
    "short_desc": "",
    "long_desc": "",
    "hint": null,
    "tags": [],
    "namespace": "App",
    "file": "\/home\/albemumo\/Workspace\/HoyVoy\/blog\/app\/User.php",
    "relative_file": null,
    "hash": "188fffc81e356d56b7d2245a421f17c5de4c75d9",
    "parent": "Illuminate\\Foundation\\Auth\\User",
    "modifiers": 0,
    "is_trait": false,
    "is_interface": false,
    "aliases": {
        "Notifiable": "Illuminate\\Notifications\\Notifiable",
        "MustVerifyEmail": "Illuminate\\Contracts\\Auth\\MustVerifyEmail",
        "Authenticatable": "Illuminate\\Foundation\\Auth\\User"
    },
    "errors": [],
    "interfaces": [],
    "traits": {
        "Illuminate\\Notifications\\Notifiable": "Illuminate\\Notifications\\Notifiable"
    },
    "properties": {
        "fillable": {
            "name": "fillable",
            "line": 18,
            "short_desc": "The attributes that are mass assignable.",
            "long_desc": "",
            "hint": [
                [
                    "array",
                    false
                ]
            ],
            "hint_desc": "",
            "tags": [],
            "modifiers": 2,
            "default": {
                "nodeType": "Expr_Array",
                "items": [
                    {
                        "nodeType": "Expr_ArrayItem",
                        "key": null,
                        "value": {
                            "nodeType": "Scalar_String",
                            "value": "name",
                            "attributes": {
                                "startLine": 19,
                                "endLine": 19,
                                "kind": 1
                            }
                        },
                        "byRef": false,
                        "attributes": {
                            "startLine": 19,
                            "endLine": 19
                        }
                    },
                    {
                        "nodeType": "Expr_ArrayItem",
                        "key": null,
                        "value": {
                            "nodeType": "Scalar_String",
                            "value": "email",
                            "attributes": {
                                "startLine": 19,
                                "endLine": 19,
                                "kind": 1
                            }
                        },
                        "byRef": false,
                        "attributes": {
                            "startLine": 19,
                            "endLine": 19
                        }
                    },
                    {
                        "nodeType": "Expr_ArrayItem",
                        "key": null,
                        "value": {
                            "nodeType": "Scalar_String",
                            "value": "password",
                            "attributes": {
                                "startLine": 19,
                                "endLine": 19,
                                "kind": 1
                            }
                        },
                        "byRef": false,
                        "attributes": {
                            "startLine": 19,
                            "endLine": 19
                        }
                    }
                ],
                "attributes": {
                    "startLine": 18,
                    "endLine": 20,
                    "kind": 2
                }
            },
            "errors": []
        },
        "hidden": {
            "name": "hidden",
            "line": 27,
            "short_desc": "The attributes that should be hidden for arrays.",
            "long_desc": "",
            "hint": [
                [
                    "array",
                    false
                ]
            ],
            "hint_desc": "",
            "tags": [],
            "modifiers": 2,
            "default": {
                "nodeType": "Expr_Array",
                "items": [
                    {
                        "nodeType": "Expr_ArrayItem",
                        "key": null,
                        "value": {
                            "nodeType": "Scalar_String",
                            "value": "password",
                            "attributes": {
                                "startLine": 28,
                                "endLine": 28,
                                "kind": 1
                            }
                        },
                        "byRef": false,
                        "attributes": {
                            "startLine": 28,
                            "endLine": 28
                        }
                    },
                    {
                        "nodeType": "Expr_ArrayItem",
                        "key": null,
                        "value": {
                            "nodeType": "Scalar_String",
                            "value": "remember_token",
                            "attributes": {
                                "startLine": 28,
                                "endLine": 28,
                                "kind": 1
                            }
                        },
                        "byRef": false,
                        "attributes": {
                            "startLine": 28,
                            "endLine": 28
                        }
                    }
                ],
                "attributes": {
                    "startLine": 27,
                    "endLine": 29,
                    "kind": 2
                }
            },
            "errors": []
        }
    },
    "methods": [],
    "constants": []
}