{
    "name": "App\\Http\\Middleware\\CheckForMaintenanceMode",
    "line": 7,
    "short_desc": "",
    "long_desc": "",
    "hint": null,
    "tags": [],
    "namespace": "App\\Http\\Middleware",
    "file": "\/home\/albemumo\/Workspace\/HoyVoy\/blog\/app\/Http\/Middleware\/CheckForMaintenanceMode.php",
    "relative_file": null,
    "hash": "895a59c64cdf100b61e594a606f407c587b4c719",
    "parent": "Illuminate\\Foundation\\Http\\Middleware\\CheckForMaintenanceMode",
    "modifiers": 0,
    "is_trait": false,
    "is_interface": false,
    "aliases": {
        "Middleware": "Illuminate\\Foundation\\Http\\Middleware\\CheckForMaintenanceMode"
    },
    "errors": [],
    "interfaces": [],
    "traits": [],
    "properties": {
        "except": {
            "name": "except",
            "line": 14,
            "short_desc": "The URIs that should be reachable while maintenance mode is enabled.",
            "long_desc": "",
            "hint": [
                [
                    "array",
                    false
                ]
            ],
            "hint_desc": "",
            "tags": [],
            "modifiers": 2,
            "default": {
                "nodeType": "Expr_Array",
                "items": [],
                "attributes": {
                    "startLine": 14,
                    "endLine": 16,
                    "kind": 2
                }
            },
            "errors": []
        }
    },
    "methods": [],
    "constants": []
}