{
    "name": "App\\Http\\Controllers\\Controller",
    "line": 10,
    "short_desc": "",
    "long_desc": "",
    "hint": null,
    "tags": [],
    "namespace": "App\\Http\\Controllers",
    "file": "\/home\/albemumo\/Workspace\/HoyVoy\/blog\/app\/Http\/Controllers\/Controller.php",
    "relative_file": null,
    "hash": "080a728cc40011ab4c4a68d88e221ed8a577d562",
    "parent": "Illuminate\\Routing\\Controller",
    "modifiers": 0,
    "is_trait": false,
    "is_interface": false,
    "aliases": {
        "DispatchesJobs": "Illuminate\\Foundation\\Bus\\DispatchesJobs",
        "BaseController": "Illuminate\\Routing\\Controller",
        "ValidatesRequests": "Illuminate\\Foundation\\Validation\\ValidatesRequests",
        "AuthorizesRequests": "Illuminate\\Foundation\\Auth\\Access\\AuthorizesRequests"
    },
    "errors": [],
    "interfaces": [],
    "traits": {
        "Illuminate\\Foundation\\Auth\\Access\\AuthorizesRequests": "Illuminate\\Foundation\\Auth\\Access\\AuthorizesRequests",
        "Illuminate\\Foundation\\Bus\\DispatchesJobs": "Illuminate\\Foundation\\Bus\\DispatchesJobs",
        "Illuminate\\Foundation\\Validation\\ValidatesRequests": "Illuminate\\Foundation\\Validation\\ValidatesRequests"
    },
    "properties": [],
    "methods": [],
    "constants": []
}