{
    "name": "App\\Http\\Middleware\\EncryptCookies",
    "line": 7,
    "short_desc": "",
    "long_desc": "",
    "hint": null,
    "tags": [],
    "namespace": "App\\Http\\Middleware",
    "file": "\/home\/albemumo\/Workspace\/HoyVoy\/blog\/app\/Http\/Middleware\/EncryptCookies.php",
    "relative_file": null,
    "hash": "6076ea9a9b9b300ebd0a2cc979c79fb7cb11569d",
    "parent": "Illuminate\\Cookie\\Middleware\\EncryptCookies",
    "modifiers": 0,
    "is_trait": false,
    "is_interface": false,
    "aliases": {
        "Middleware": "Illuminate\\Cookie\\Middleware\\EncryptCookies"
    },
    "errors": [],
    "interfaces": [],
    "traits": [],
    "properties": {
        "except": {
            "name": "except",
            "line": 14,
            "short_desc": "The names of the cookies that should not be encrypted.",
            "long_desc": "",
            "hint": [
                [
                    "array",
                    false
                ]
            ],
            "hint_desc": "",
            "tags": [],
            "modifiers": 2,
            "default": {
                "nodeType": "Expr_Array",
                "items": [],
                "attributes": {
                    "startLine": 14,
                    "endLine": 16,
                    "kind": 2
                }
            },
            "errors": []
        }
    },
    "methods": [],
    "constants": []
}