{
    "name": "App\\Http\\Middleware\\TrimStrings",
    "line": 7,
    "short_desc": "",
    "long_desc": "",
    "hint": null,
    "tags": [],
    "namespace": "App\\Http\\Middleware",
    "file": "\/home\/albemumo\/Workspace\/HoyVoy\/blog\/app\/Http\/Middleware\/TrimStrings.php",
    "relative_file": null,
    "hash": "e5b0f4959d4441b5c5dada8ba5ca539bb3e13d3b",
    "parent": "Illuminate\\Foundation\\Http\\Middleware\\TrimStrings",
    "modifiers": 0,
    "is_trait": false,
    "is_interface": false,
    "aliases": {
        "Middleware": "Illuminate\\Foundation\\Http\\Middleware\\TrimStrings"
    },
    "errors": [],
    "interfaces": [],
    "traits": [],
    "properties": {
        "except": {
            "name": "except",
            "line": 14,
            "short_desc": "The names of the attributes that should not be trimmed.",
            "long_desc": "",
            "hint": [
                [
                    "array",
                    false
                ]
            ],
            "hint_desc": "",
            "tags": [],
            "modifiers": 2,
            "default": {
                "nodeType": "Expr_Array",
                "items": [
                    {
                        "nodeType": "Expr_ArrayItem",
                        "key": null,
                        "value": {
                            "nodeType": "Scalar_String",
                            "value": "password",
                            "attributes": {
                                "startLine": 15,
                                "endLine": 15,
                                "kind": 1
                            }
                        },
                        "byRef": false,
                        "attributes": {
                            "startLine": 15,
                            "endLine": 15
                        }
                    },
                    {
                        "nodeType": "Expr_ArrayItem",
                        "key": null,
                        "value": {
                            "nodeType": "Scalar_String",
                            "value": "password_confirmation",
                            "attributes": {
                                "startLine": 16,
                                "endLine": 16,
                                "kind": 1
                            }
                        },
                        "byRef": false,
                        "attributes": {
                            "startLine": 16,
                            "endLine": 16
                        }
                    }
                ],
                "attributes": {
                    "startLine": 14,
                    "endLine": 17,
                    "kind": 2
                }
            },
            "errors": []
        }
    },
    "methods": [],
    "constants": []
}